^D:\LEARNC\HOMEWORK15\MAIN.CPP
D:\LEARNC\HOMEWORK15\DEBUG\VC142.PDB
D:\LEARNC\HOMEWORK15\DEBUG\VC142.IDB
D:\LEARNC\HOMEWORK15\DEBUG\MAIN.OBJ
^C:\USERS\ROMAN\DESKTOP\HOMEWORK15\MAIN.CPP
C:\USERS\ROMAN\DESKTOP\HOMEWORK15\DEBUG\VC142.PDB
C:\USERS\ROMAN\DESKTOP\HOMEWORK15\DEBUG\VC142.IDB
C:\USERS\ROMAN\DESKTOP\HOMEWORK15\DEBUG\MAIN.OBJ
